…
The next

``` r
#Using the object_info function to pull data for the contingency table  
obj_tbl <- object_info("1d505e26-5d36-4674-a35b-c40cab886778")  
```

    ## # A tibble: 99 × 4
    ##    objectid century      culture  totalpageviews
    ##       <int> <chr>        <chr>             <int>
    ##  1    39114 20th century American              0
    ##  2    39115 20th century American              0
    ##  3    39116 20th century American              3
    ##  4    39117 20th century American              0
    ##  5    39118 20th century American              2
    ##  6    39119 20th century American              5
    ##  7    39120 20th century German                4
    ##  8    39121 20th century German                3
    ##  9    39122 20th century American              5
    ## 10    39123 20th century American             10
    ## # ℹ 89 more rows
…
``` r
#Using person_gender() to pull only female records first
pers_tbl <- find_people("1d505e26-5d36-4674-a35b-c40cab886778")  

#Making a line plot off of the objectcount over time for each gender
obj_cnt_plot2 <- ggplot(pers_tbl, aes(x = datebegin, y = objectcount, color = gender)) + 
            geom_line()
```

``` r
#Pull data from object API endpoint
cent_views_tbl <- object_info("1d505e26-5d36-4674-a35b-c40cab886778")  
```

    ## # A tibble: 100 × 4
    ##    objectid century      culture  totalpageviews
    ##       <int> <chr>        <chr>             <int>
    ##  1    54767 20th century American              2
    ##  2    54768 20th century American              2
    ##  3    54769 20th century American              3
    ##  4    54770 20th century American              1
    ##  5    54771 20th century American              6
    ##  6    54772 20th century American              1
    ##  7    54773 20th century American              4
    ##  8    54774 20th century American              1
    ##  9    54775 20th century American              3
    ## 10    54776 20th century American              7
    ## # ℹ 90 more rows

``` r
#Make a scatterplot of the century versus the totalpageviews
cent_views_plot3 <- ggplot(cent_views_tbl, aes(x = century, y = totalpageviews)) + 
                             geom_histogram()
```

``` r
#Pull data from the object API endpoint 
cult_views_tbl <- object_info("1d505e26-5d36-4674-a35b-c40cab886778")  
```

    ## # A tibble: 99 × 4
    ##    objectid century      culture  totalpageviews
    ##       <int> <chr>        <chr>             <int>
    ##  1    39114 20th century American              0
    ##  2    39115 20th century American              0
    ##  3    39116 20th century American              3
    ##  4    39117 20th century American              0
    ##  5    39118 20th century American              2
    ##  6    39119 20th century American              5
    ##  7    39120 20th century German                4
    ##  8    39121 20th century German                3
    ##  9    39122 20th century American              5
    ## 10    39123 20th century American             10
    ## # ℹ 89 more rows

``` r
#Make a histogram for the totalpageviews per culture  
cult_views_plot4 <- ggplot(cult_views_tbl, aes(x = culture, y = totalpageviews)) + 
                              geom_jitter()
```

``` r
#Pull data from the object API endpoint 
cult_views_tbl2 <- object_info("1d505e26-5d36-4674-a35b-c40cab886778")  
```

    ## # A tibble: 100 × 4
    ##    objectid century      culture  totalpageviews
    ##       <int> <chr>        <chr>             <int>
    ##  1    54767 20th century American              2
    ##  2    54768 20th century American              2
    ##  3    54769 20th century American              3
    ##  4    54770 20th century American              1
    ##  5    54771 20th century American              6
    ##  6    54772 20th century American              1
    ##  7    54773 20th century American              4
    ##  8    54774 20th century American              1
    ##  9    54775 20th century American              3
    ## 10    54776 20th century American              7
    ## # ℹ 90 more rows
…
