…
The next contingency table is one that compares the culture to the
century. In this table, I should be able to see what century the work
from a specific culture comes from. This is important to answer
questions about the spread of culture throughout time.

``` r
#Using the object_info function to pull data for the contingency table  
obj_tbl <- object_info("1d505e26-5d36-4674-a35b-c40cab886778")  
```

    ## # A tibble: 100 × 4
    ##    objectid century      culture totalpageviews
    ##       <int> <chr>        <chr>            <int>
    ##  1   161783 20th century German?              2
    ##  2   161784 20th century German?              2
    ##  3   161785 20th century German?              5
    ##  4   161786 20th century German?              4
    ##  5   161787 20th century German?              2
    ##  6   161788 20th century German?              2
    ##  7   161789 20th century German?              5
    ##  8   161790 20th century German?              2
    ##  9   161791 20th century German?              2
    ## 10   161792 20th century German?              2
    ## # ℹ 90 more rows
…
``` r
#Including the call again so that the plots render correctly  
obj_tbl3 <- object_info("1d505e26-5d36-4674-a35b-c40cab886778")  
```

    ## # A tibble: 99 × 4
    ##    objectid century           culture  totalpageviews
    ##       <int> <chr>             <chr>             <int>
    ##  1     5132 20th century      American             22
    ##  2     5133 20th century      American             20
    ##  3     5134 20th century      American             19
    ##  4     5135 20th century      American             17
    ##  5     5136 19th-20th century British              28
    ##  6     5137 19th-20th century French              112
    ##  7     5138 20th century      American              9
    ##  8     5139 19th-20th century French               45
    ##  9     5140 19th century      French               73
    ## 10     5141 19th century      French               26
    ## # ℹ 89 more rows
…
Similar to before, I want to see the most viewed culture of the objects.
My assumption would be that more commonly known cultures, i.e. Japanese
over Coptic, would be viewed more than lesser known options. It would be
interesting to see among the popular ones which culture comes out with
the most views. I would imagine that cultures rich in history and
artistic skill would have more than other cultures. I am not a history
buff, otherwise I might be able to name which ones would be my top
guesses for the most viewed culture.

``` r
#Including the call again so that the plots render correctly  
obj_tbl4 <- object_info("1d505e26-5d36-4674-a35b-c40cab886778")  
```

    ## # A tibble: 100 × 4
    ##    objectid century      culture totalpageviews
    ##       <int> <chr>        <chr>            <int>
    ##  1   161783 20th century German?              2
    ##  2   161784 20th century German?              2
    ##  3   161785 20th century German?              5
    ##  4   161786 20th century German?              4
    ##  5   161787 20th century German?              2
    ##  6   161788 20th century German?              2
    ##  7   161789 20th century German?              5
    ##  8   161790 20th century German?              2
    ##  9   161791 20th century German?              2
    ## 10   161792 20th century German?              2
    ## # ℹ 90 more rows
…
My final plot is of a dot plot. I wanted a different visual to show off
the same information as the previous scatterplot. I chose a dot plot to
emphasis the frequency of the number of views in case some are being
obscured in the more haphazard organization of a jitter plot. Based on
the jitter plot results, I should be seeing the highest views in Korean
culture and a high outlier in American culture.

``` r
#Including the call again so that the plots render correctly  
obj_tbl <- object_info("1d505e26-5d36-4674-a35b-c40cab886778")  
```

    ## # A tibble: 100 × 4
    ##    objectid century      culture totalpageviews
    ##       <int> <chr>        <chr>            <int>
    ##  1   161783 20th century German?              2
    ##  2   161784 20th century German?              2
    ##  3   161785 20th century German?              5
    ##  4   161786 20th century German?              4
    ##  5   161787 20th century German?              2
    ##  6   161788 20th century German?              2
    ##  7   161789 20th century German?              5
    ##  8   161790 20th century German?              2
    ##  9   161791 20th century German?              2
    ## 10   161792 20th century German?              2
    ## # ℹ 90 more rows
…
